MAVEn_workflow
…
Instrument run overview

Evaluating the experimental time course is a vital step to check for issues with chamber sealing or measurements that may impact the experiment.

Here, we read in the full MAVEn data set that includes the baseline data by toggling baseline = T in the read_maven function.

experiment_name <- "maven_analysis_output"
activity_interval_value <- 60
activity_baseline_value <- 0.01
activity_threshold_value <- 1

maven_raw <- read_maven(datadir = "../inst/extdata", 
                        maven_datafile = "./maven_output.csv", baseline = T)
tibble(maven_raw)
#> # A tibble: 4,218 x 66
#>    Seconds Date_Time CO2ppm WVppt RefBP   TC1   TC2 Volts_6 FRB_mlmin FRC_mlmin
#>      <int>     <dbl>  <dbl> <dbl> <dbl> <dbl> <dbl>   <dbl>     <dbl>     <dbl>
#>  1       0    62582.   1.26 10.0   103.  23.6  27.9    2.50      20.0      19.9
#>  2       1    62582.   1.25  9.01  103.  23.7  27.9    2.51      20.0      19.8
#>  3       2    62582.   1.25  8.95  103.  23.7  27.9    2.51      20.0      19.8
#>  4       3    62582.   1.24  8.87  103.  23.7  28.0    2.50      20.0      19.8
#>  5       4    62582.   1.24  8.82  103.  23.7  27.9    2.50      20.0      19.8
#>  6       5    62582.   1.24  8.77  103.  23.7  27.9    2.50      19.9      19.8
#>  7       6    62582.   1.24  8.70  103.  23.7  27.9    2.50      19.9      19.8
#>  8       7    62582.   1.24  8.66  103.  23.7  27.9    2.50      19.9      19.8
#>  9       8    62582.   1.23  8.59  103.  23.7  28.0    2.50      20.0      19.8
#> 10       9    62582.   1.23  8.54  103.  23.7  28.0    2.50      20.0      19.8
#> # ... with 4,208 more rows, and 56 more variables: Chamber <int>, TempC <dbl>,
#> #   RH_pct <dbl>, Light_Lux <dbl>, BP_kPa <dbl>, Act_1 <dbl>, Act_2 <dbl>,
#> #   Act_3 <dbl>, Act_4 <dbl>, Act_5 <dbl>, Act_6 <dbl>, Act_7 <dbl>,
#> #   Act_8 <int>, Act_9 <dbl>, Act_10 <dbl>, Act_11 <dbl>, Act_12 <dbl>,
#> #   Act_13 <dbl>, Act_14 <dbl>, Act_15 <int>, Act_16 <int>, c_FRC_mlmin <dbl>,
#> #   c_CO2ppm <dbl>, CO2_mlmin <dbl>, FlyChamber1 <int>, FlyChamber2 <int>,
#> #   FlyChamber3 <int>, FlyChamber4 <int>, FlyChamber5 <int>, FlyChamber6 <int>,
#> #   FlyChamber7 <int>, FlyChamber8 <int>, FlyChamber9 <int>,
#> #   FlyChamber10 <int>, FlyChamber11 <int>, FlyChamber12 <int>,
…
Processing MAVEn data

Step 1: Load the MAVEn data set without baseline

Baseline data from all downstream calculations, with the exception of the metabolism and activity visual diagnostics. However, if baseline data are required, simply change the baseline toggle to TRUE.

maven <- read_maven(datadir = "../inst/extdata", 
                    maven_datafile = "./maven_output.csv", baseline = F)
tibble(maven)
#> # A tibble: 3,842 x 66
#>    Seconds Date_Time CO2ppm WVppt RefBP   TC1   TC2 Volts_6 FRB_mlmin FRC_mlmin
#>      <int>     <dbl>  <dbl> <dbl> <dbl> <dbl> <dbl>   <dbl>     <dbl>     <dbl>
#>  1      17    62582.   1.21  8.12  103.  23.7  28.0    2.50      20.1      19.8
#>  2      18    62582.   1.20  8.07  103.  23.7  28.0    2.50      20.8      19.5
#>  3      19    62582.   1.19  8.02  103.  23.7  28.0    2.50      20.4      18.8
#>  4      20    62582.   1.12  7.97  103.  23.7  27.9    2.50      19.9      18.0
#>  5      21    62582.   1.09  7.92  103.  23.7  28.0    2.50      19.7      17.8
#>  6      22    62582.   1.14  7.88  103.  23.7  28.0    2.50      19.9      17.9
#>  7      23    62582.   1.20  7.84  103.  23.7  28.0    2.50      20.0      18  
#>  8      24    62582.   1.21  7.80  103.  23.7  28.0    2.50      20.1      18.1
#>  9      25    62582.   1.21  7.77  103.  23.7  27.9    2.51      19.9      17.9
#> 10      26    62582.   1.19  7.72  103.  23.8  28.0    2.50      20.0      18.0
#> # ... with 3,832 more rows, and 56 more variables: Chamber <int>, TempC <dbl>,
#> #   RH_pct <dbl>, Light_Lux <dbl>, BP_kPa <dbl>, Act_1 <dbl>, Act_2 <dbl>,
#> #   Act_3 <dbl>, Act_4 <dbl>, Act_5 <dbl>, Act_6 <dbl>, Act_7 <dbl>,
#> #   Act_8 <int>, Act_9 <dbl>, Act_10 <dbl>, Act_11 <dbl>, Act_12 <dbl>,
#> #   Act_13 <dbl>, Act_14 <dbl>, Act_15 <int>, Act_16 <int>, c_FRC_mlmin <dbl>,
#> #   c_CO2ppm <dbl>, CO2_mlmin <dbl>, FlyChamber1 <int>, FlyChamber2 <int>,
#> #   FlyChamber3 <int>, FlyChamber4 <int>, FlyChamber5 <int>, FlyChamber6 <int>,
#> #   FlyChamber7 <int>, FlyChamber8 <int>, FlyChamber9 <int>,
#> #   FlyChamber10 <int>, FlyChamber11 <int>, FlyChamber12 <int>,
…
Step 2: Assign a cycle number to the data

Cycle numbers refer to the complete measurement of Chambers 1 - 16. When the instrument run is started, measurements begin in the chamber where the instrument run last finished rather than restarting with a baseline (Chamber 0) or Chamber 1. Measurements continue until the instrument run is terminated, which could occur in the middle of a chamberâ€™s measurement. Cycle assignment using assign_cyclenumber is responsive to those cases and will only assign a cycle number to data that are part of a complete cycle.

maven_cycle <- assign_cyclenumber(maven)

tibble(maven_cycle)
#> # A tibble: 3,842 x 67
#>    Seconds Date_Time CO2ppm WVppt RefBP   TC1   TC2 Volts_6 FRB_mlmin FRC_mlmin
#>      <int>     <dbl>  <dbl> <dbl> <dbl> <dbl> <dbl>   <dbl>     <dbl>     <dbl>
#>  1      17    62582.   1.21  8.12  103.  23.7  28.0    2.50      20.1      19.8
#>  2      18    62582.   1.20  8.07  103.  23.7  28.0    2.50      20.8      19.5
#>  3      19    62582.   1.19  8.02  103.  23.7  28.0    2.50      20.4      18.8
#>  4      20    62582.   1.12  7.97  103.  23.7  27.9    2.50      19.9      18.0
#>  5      21    62582.   1.09  7.92  103.  23.7  28.0    2.50      19.7      17.8
#>  6      22    62582.   1.14  7.88  103.  23.7  28.0    2.50      19.9      17.9
#>  7      23    62582.   1.20  7.84  103.  23.7  28.0    2.50      20.0      18  
#>  8      24    62582.   1.21  7.80  103.  23.7  28.0    2.50      20.1      18.1
#>  9      25    62582.   1.21  7.77  103.  23.7  27.9    2.51      19.9      17.9
#> 10      26    62582.   1.19  7.72  103.  23.8  28.0    2.50      20.0      18.0
#> # ... with 3,832 more rows, and 57 more variables: Chamber <int>, TempC <dbl>,
#> #   RH_pct <dbl>, Light_Lux <dbl>, BP_kPa <dbl>, Act_1 <dbl>, Act_2 <dbl>,
#> #   Act_3 <dbl>, Act_4 <dbl>, Act_5 <dbl>, Act_6 <dbl>, Act_7 <dbl>,
#> #   Act_8 <int>, Act_9 <dbl>, Act_10 <dbl>, Act_11 <dbl>, Act_12 <dbl>,
#> #   Act_13 <dbl>, Act_14 <dbl>, Act_15 <int>, Act_16 <int>, c_FRC_mlmin <dbl>,
#> #   c_CO2ppm <dbl>, CO2_mlmin <dbl>, FlyChamber1 <int>, FlyChamber2 <int>,
#> #   FlyChamber3 <int>, FlyChamber4 <int>, FlyChamber5 <int>, FlyChamber6 <int>,
#> #   FlyChamber7 <int>, FlyChamber8 <int>, FlyChamber9 <int>,
#> #   FlyChamber10 <int>, FlyChamber11 <int>, FlyChamber12 <int>,
…
Step 3a: Extract the metabolism data from the data set

Extracting information from the larger data set provides a mechanism to only use the critical pieces of information. Animal metabolism is associated with CO2 production within a given chamber. These data are extracted from the CO2_mlminFly1:CO2_mlminFly16 columns in cycle-assign MAVEn data set using extract_metabolism.

animal_metabolism <- extract_metabolism(maven_cycle)

tibble(animal_metabolism)
#> # A tibble: 3,830 x 22
#>    Seconds Date_Time CO2ppm WVppt RefBP   TC1   TC2 Volts_6 FRB_mlmin FRC_mlmin
#>      <int>     <dbl>  <dbl> <dbl> <dbl> <dbl> <dbl>   <dbl>     <dbl>     <dbl>
#>  1      17    62582.   1.21  8.12  103.  23.7  28.0    2.50      20.1      19.8
#>  2      18    62582.   1.20  8.07  103.  23.7  28.0    2.50      20.8      19.5
#>  3      19    62582.   1.19  8.02  103.  23.7  28.0    2.50      20.4      18.8
#>  4      20    62582.   1.12  7.97  103.  23.7  27.9    2.50      19.9      18.0
#>  5      21    62582.   1.09  7.92  103.  23.7  28.0    2.50      19.7      17.8
#>  6      22    62582.   1.14  7.88  103.  23.7  28.0    2.50      19.9      17.9
#>  7      23    62582.   1.20  7.84  103.  23.7  28.0    2.50      20.0      18  
#>  8      24    62582.   1.21  7.80  103.  23.7  28.0    2.50      20.1      18.1
#>  9      25    62582.   1.21  7.77  103.  23.7  27.9    2.51      19.9      17.9
#> 10      26    62582.   1.19  7.72  103.  23.8  28.0    2.50      20.0      18.0
#> # ... with 3,820 more rows, and 12 more variables: Chamber <int>, TempC <dbl>,
#> #   RH_pct <dbl>, Light_Lux <dbl>, BP_kPa <dbl>, c_FRC_mlmin <dbl>,
#> #   c_CO2ppm <dbl>, CO2_mlmin <dbl>, cycle <chr>, parameter <dbl>,
#> #   result <dbl>, measurement_number <dbl>
…
Step 6a: Extract animal activity data based on metabolism calculations

CO2 measurements are recorded for 120 seconds while animal activity is continuously recorded during an experimental run. Thus, it would be possible to measure an animalâ€™s activity for longer than the CO2 measurement window in a specific chamber. However, because of how the instrument begins and ends an experimental run, having a consist number of activity readings outside the metabolism measurement may not be achievable. extract_activity requires the user to input an interval (measured in seconds) and a threshold activity level. Given the variability in where the instrument starts measurements, it is recommended to select a value no longer than 60 seconds (within the CO2 measurement interval)

animal_activity <- extract_activity(maven_cycle, metabolism_summary_cycle,
                                interval = activity_interval_value, 
                                activity_baseline = activity_baseline_value)
tibble(animal_activity) 
#> # A tibble: 3,834 x 28
#>    Seconds Date_Time CO2ppm WVppt RefBP   TC1   TC2 Volts_6 FRB_mlmin FRC_mlmin
#>      <int>     <dbl>  <dbl> <dbl> <dbl> <dbl> <dbl>   <dbl>     <dbl>     <dbl>
#>  1      17    62582.   1.21  8.12  103.  23.7  28.0    2.50      20.1      19.8
#>  2      18    62582.   1.20  8.07  103.  23.7  28.0    2.50      20.8      19.5
#>  3      19    62582.   1.19  8.02  103.  23.7  28.0    2.50      20.4      18.8
#>  4      20    62582.   1.12  7.97  103.  23.7  27.9    2.50      19.9      18.0
#>  5      21    62582.   1.09  7.92  103.  23.7  28.0    2.50      19.7      17.8
#>  6      22    62582.   1.14  7.88  103.  23.7  28.0    2.50      19.9      17.9
#>  7      23    62582.   1.20  7.84  103.  23.7  28.0    2.50      20.0      18  
#>  8      24    62582.   1.21  7.80  103.  23.7  28.0    2.50      20.1      18.1
#>  9      25    62582.   1.21  7.77  103.  23.7  27.9    2.51      19.9      17.9
#> 10      26    62582.   1.19  7.72  103.  23.8  28.0    2.50      20.0      18.0
#> # ... with 3,824 more rows, and 18 more variables: Chamber <int>, TempC <dbl>,
#> #   RH_pct <dbl>, Light_Lux <dbl>, BP_kPa <dbl>, cycle <chr>,
#> #   c_FRC_mlmin <dbl>, c_CO2ppm <dbl>, CO2_mlmin <dbl>, parameter <dbl>,
#> #   result <dbl>, median_co2_ul.h <dbl>, median_time <dbl>, median_temp <dbl>,
#> #   act_start <dbl>, act_end <dbl>, measurement_number <dbl>, result_flag <chr>
…
Step 9: Create the finalized data table

maven_datatable(metabolism_summary_cycle, activity_summary_cycle,
                            maven_experiment = experiment_name)
#> # A tibble: 32 x 8
#> # Groups:   Chamber [16]
#>    Chamber cycle median_co2_ul.h median_time median_temp mean_activity
#>      <int> <chr>           <dbl>       <dbl>       <dbl>         <dbl>
#>  1       1 1                3.44        76.5        23.6        NA    
#>  2       1 2                5.72      2176.         25.6         0.256
#>  3       2 1                2.29       196.         23.9        NA    
#>  4       2 2                4.48      2296.         25.6        NA    
#>  5       3 1                4.58       316.         24.2        NA    
#>  6       3 2                5.14      2416.         25.6        NA    
#>  7       4 1                5.55       436.         24.5        NA    
#>  8       4 2                5.03      2536.         25.5         0.342
#>  9       5 1                4.40       556.         24.8         0.413
#> 10       5 2                4.14      2656.         25.5        NA    
#> # ... with 22 more rows, and 2 more variables: median_activity <dbl>,
#> #   activity_state <chr>
…
